2007-06-06 16:28 +0000 [r672283]  mlaurent

	* branches/KDE/3.5/kdetoys/kweather/reportmain.cpp: Backport fix
	  mem leak

2007-10-08 11:06 +0000 [r722972]  coolo

	* branches/KDE/3.5/kdetoys/kdetoys.lsm: updating lsm

