------------------------------------------------------------------------
r935451 | scripty | 2009-03-05 07:53:04 +0000 (Thu, 05 Mar 2009) | 1 line

SVN_SILENT made messages (.desktop file)
------------------------------------------------------------------------
r937019 | lueck | 2009-03-08 21:45:37 +0000 (Sun, 08 Mar 2009) | 1 line

doc backport from trunk
------------------------------------------------------------------------
r942140 | scripty | 2009-03-21 08:18:13 +0000 (Sat, 21 Mar 2009) | 1 line

SVN_SILENT made messages (.desktop file)
------------------------------------------------------------------------
r944316 | mlaurent | 2009-03-25 12:33:23 +0000 (Wed, 25 Mar 2009) | 3 lines

Backport:
Fix shortcut warning

------------------------------------------------------------------------
r944327 | mlaurent | 2009-03-25 12:50:10 +0000 (Wed, 25 Mar 2009) | 3 lines

Backport:
Fix crash

------------------------------------------------------------------------
r944334 | mlaurent | 2009-03-25 13:00:22 +0000 (Wed, 25 Mar 2009) | 2 lines

Backport: fix crash

------------------------------------------------------------------------
r944686 | woebbe | 2009-03-25 22:44:31 +0000 (Wed, 25 Mar 2009) | 1 line

link with gold
------------------------------------------------------------------------
r944800 | mlaurent | 2009-03-26 07:57:55 +0000 (Thu, 26 Mar 2009) | 3 lines

Backport:
Fix crash when we don't have voice

------------------------------------------------------------------------
r944806 | mlaurent | 2009-03-26 08:11:04 +0000 (Thu, 26 Mar 2009) | 3 lines

Backport:
fix crash when we don't have voice

------------------------------------------------------------------------
