------------------------------------------------------------------------
r967314 | scripty | 2009-05-13 08:07:12 +0000 (Wed, 13 May 2009) | 1 line

SVN_SILENT made messages (.desktop file)
------------------------------------------------------------------------
r972347 | cfeck | 2009-05-24 16:53:05 +0000 (Sun, 24 May 2009) | 4 lines

Fix D-Bus related crash in kttsd (backport r972345)

CCBUG: 164518

------------------------------------------------------------------------
