------------------------------------------------------------------------
r1098394 | lueck | 2010-03-04 05:52:34 +1300 (Thu, 04 Mar 2010) | 1 line

doc backport from trunk
------------------------------------------------------------------------
